---------------------------------------------------------- SRo  - set SourceA une Tension limitée à delay(18E-3) 
jhgjhg  delay(18E-3) ---------------------------------------------------------- SRo  - set SourceA une Tension limitee a delay(18E-3)
ededededed
ef
r
fr
f
rg
t
gt
g
tg
t
gt
hy
h
y
hy
